%YAML 1.1
%TAG !u! tag:unity3d.com,2011:
--- !u!114 &11400000
MonoBehaviour:
  m_ObjectHideFlags: 0
  m_CorrespondingSourceObject: {fileID: 0}
  m_PrefabInstance: {fileID: 0}
  m_PrefabAsset: {fileID: 0}
  m_GameObject: {fileID: 0}
  m_Enabled: 1
  m_EditorHideFlags: 0
  m_Script: {fileID: 11500000, guid: db03a395b083f5541a27e8bdf8070e5c, type: 3}
  m_Name: water_background
  m_EditorClassIdentifier: 
  m_AnimatedSprites:
  - {fileID: 8509550459451208454, guid: 9638a814d9c7de2468af68c586718125, type: 3}
  - {fileID: 3559705528278350927, guid: 9638a814d9c7de2468af68c586718125, type: 3}
  - {fileID: -4124057691748712743, guid: 9638a814d9c7de2468af68c586718125, type: 3}
  - {fileID: -7064220622572970029, guid: 9638a814d9c7de2468af68c586718125, type: 3}
  - {fileID: -2740290441555968558, guid: 9638a814d9c7de2468af68c586718125, type: 3}
  - {fileID: 7149751655148466542, guid: 9638a814d9c7de2468af68c586718125, type: 3}
  - {fileID: -7655527456229970072, guid: 9638a814d9c7de2468af68c586718125, type: 3}
  - {fileID: -1984912068192422301, guid: 9638a814d9c7de2468af68c586718125, type: 3}
  - {fileID: -277465505295718648, guid: 9638a814d9c7de2468af68c586718125, type: 3}
  - {fileID: 9222073198021860894, guid: 9638a814d9c7de2468af68c586718125, type: 3}
  m_MinSpeed: 1
  m_MaxSpeed: 1
  m_AnimationStartTime: 0
  m_TileColliderType: 0
